…
pulse_data  
```

    ## # A tibble: 4,348 x 5
    ##       id visit   age sex     bdi
    ##    <dbl> <chr> <dbl> <chr> <dbl>
    ##  1 10003 00m    48.0 male      7
    ##  2 10003 01m    48.0 male      1
    ##  3 10003 06m    48.0 male      2
    ##  4 10003 12m    48.0 male      0
    ##  5 10015 00m    72.5 male      6
    ##  6 10015 01m    72.5 male     NA
    ##  7 10015 06m    72.5 male     NA
    ##  8 10015 12m    72.5 male     NA
    ##  9 10022 00m    58.5 male     14
    ## 10 10022 01m    58.5 male      3
    ## # ... with 4,338 more rows
…
next up, timeto join them

``` r
fas_data = 
  left_join(pup_data, litter_data, by = "litter_number")

fas_data
```

    ## # A tibble: 313 x 15
    ##    litter_number sex   pd_ears pd_eyes pd_pivot pd_walk dose  day_of_tx
    ##    <chr>         <chr>   <dbl>   <dbl>    <dbl>   <dbl> <chr> <chr>    
    ##  1 #85           male        4      13        7      11 con   7        
    ##  2 #85           male        4      13        7      12 con   7        
    ##  3 #1/2/95/2     male        5      13        7       9 con   7        
    ##  4 #1/2/95/2     male        5      13        8      10 con   7        
    ##  5 #5/5/3/83/3-3 male        5      13        8      10 con   7        
    ##  6 #5/5/3/83/3-3 male        5      14        6       9 con   7        
    ##  7 #5/4/2/95/2   male       NA      14        5       9 con   7        
    ##  8 #4/2/95/3-3   male        4      13        6       8 con   7        
    ##  9 #4/2/95/3-3   male        4      13        7       9 con   7        
    ## 10 #2/2/95/3-2   male        4      NA        8      10 con   7        
    ## # ... with 303 more rows, and 7 more variables: gd0_weight <dbl>,
    ## #   gd18_weight <dbl>, gd_of_birth <dbl>, pups_born_alive <dbl>,
    ## #   pups_dead_birth <dbl>, pups_survive <dbl>, wt_gain <dbl>
…
